(footprint "CAPC160X80X90L25"
	(version 20240108)
	(generator "pcbnew")
	(generator_version "8.0")
	(layer "F.Cu")
	(descr "Capacitor, Chip; 1.60 mm L X 0.80 mm W X 0.90 mm H body")
	(tags "0603; 1608")
	(property "Reference" "REF**"
		(at 0 -1.5 0)
		(layer "F.SilkS")
		(uuid "a12f6146-6f87-4550-a6e6-069778e4d5d5")
		(effects
			(font
				(size 1 1)
				(thickness 0.15)
			)
		)
	)
	(property "Value" "Val**"
		(at 0 0 0)
		(layer "User.1")
		(uuid "5134517e-f948-49ec-ada2-31d9364d3efd")
		(effects
			(font
				(size 0.5 0.5)
				(thickness 0.06)
			)
		)
	)
	(property "Footprint" ""
		(at 0 0 0)
		(layer "F.Fab")
		(hide yes)
		(uuid "e9597efa-11cd-4837-a93d-0077e6cb4145")
		(effects
			(font
				(size 1.27 1.27)
				(thickness 0.15)
			)
		)
	)
	(property "Datasheet" ""
		(at 0 0 0)
		(layer "F.Fab")
		(hide yes)
		(uuid "7f0b5a31-0792-4f3e-a416-b5ec5cf015b3")
		(effects
			(font
				(size 1.27 1.27)
				(thickness 0.15)
			)
		)
	)
	(property "Description" ""
		(at 0 0 0)
		(layer "F.Fab")
		(hide yes)
		(uuid "5d9bdc74-16a2-49cc-89f5-6958ab5140ac")
		(effects
			(font
				(size 1.27 1.27)
				(thickness 0.15)
			)
		)
	)
	(attr smd)
	(fp_line
		(start -1.23 -0.53)
		(end -0.41 -0.53)
		(stroke
			(width 0.155)
			(type solid)
		)
		(layer "F.SilkS")
		(uuid "31a6b146-4ed7-49db-8b3b-bc4db05efe1c")
	)
	(fp_line
		(start -1.23 0.53)
		(end -1.23 -0.53)
		(stroke
			(width 0.155)
			(type solid)
		)
		(layer "F.SilkS")
		(uuid "122cf3a7-3c0b-4bc5-8921-767400651b8d")
	)
	(fp_line
		(start -0.41 0.53)
		(end -1.23 0.53)
		(stroke
			(width 0.155)
			(type solid)
		)
		(layer "F.SilkS")
		(uuid "6732bd6a-4e12-48bd-93c0-103e171ea421")
	)
	(fp_line
		(start 0.41 0.53)
		(end 1.23 0.53)
		(stroke
			(width 0.155)
			(type solid)
		)
		(layer "F.SilkS")
		(uuid "db82adb0-ce46-454a-85ac-8188d391e41c")
	)
	(fp_line
		(start 1.23 -0.53)
		(end 0.41 -0.53)
		(stroke
			(width 0.155)
			(type solid)
		)
		(layer "F.SilkS")
		(uuid "d4c67a82-d7de-4f77-ba60-a88292461584")
	)
	(fp_line
		(start 1.23 0.53)
		(end 1.23 -0.53)
		(stroke
			(width 0.155)
			(type solid)
		)
		(layer "F.SilkS")
		(uuid "4d1c328d-2c8b-4f73-a7b0-d61c49bd3b9e")
	)
	(fp_line
		(start -0.8 -0.4)
		(end -0.55 -0.4)
		(stroke
			(width 0.025)
			(type solid)
		)
		(layer "Dwgs.User")
		(uuid "af4a59b1-09ad-4e0a-9776-204d5a180462")
	)
	(fp_line
		(start -0.8 -0.4)
		(end 0.8 -0.4)
		(stroke
			(width 0.025)
			(type solid)
		)
		(layer "Dwgs.User")
		(uuid "e825961c-80a1-45c4-93cf-faea23e417c6")
	)
	(fp_line
		(start -0.8 0.4)
		(end -0.8 -0.4)
		(stroke
			(width 0.025)
			(type solid)
		)
		(layer "Dwgs.User")
		(uuid "4bcfa41f-3488-4179-8aa6-6b62f365353c")
	)
	(fp_line
		(start -0.8 0.4)
		(end -0.8 -0.4)
		(stroke
			(width 0.025)
			(type solid)
		)
		(layer "Dwgs.User")
		(uuid "baa62578-11e6-4fa2-b405-e5fc6687df86")
	)
	(fp_line
		(start -0.55 -0.4)
		(end -0.55 0.4)
		(stroke
			(width 0.025)
			(type solid)
		)
		(layer "Dwgs.User")
		(uuid "41aff476-b65b-4b9e-90e0-ae2a8467526b")
	)
	(fp_line
		(start -0.55 0.4)
		(end -0.8 0.4)
		(stroke
			(width 0.025)
			(type solid)
		)
		(layer "Dwgs.User")
		(uuid "8d557290-8957-4c99-a4b0-16a6f8388aad")
	)
	(fp_line
		(start 0.55 -0.4)
		(end 0.8 -0.4)
		(stroke
			(width 0.025)
			(type solid)
		)
		(layer "Dwgs.User")
		(uuid "bb4d363d-7f40-407d-ba2e-6c5140872153")
	)
	(fp_line
		(start 0.55 0.4)
		(end 0.55 -0.4)
		(stroke
			(width 0.025)
			(type solid)
		)
		(layer "Dwgs.User")
		(uuid "2b4c9913-af98-4539-bbd8-44b1378a4a90")
	)
	(fp_line
		(start 0.8 -0.4)
		(end 0.8 0.4)
		(stroke
			(width 0.025)
			(type solid)
		)
		(layer "Dwgs.User")
		(uuid "d466225a-6329-4141-af08-461eef0df4c8")
	)
	(fp_line
		(start 0.8 -0.4)
		(end 0.8 0.4)
		(stroke
			(width 0.025)
			(type solid)
		)
		(layer "Dwgs.User")
		(uuid "fa895281-a37a-4577-b2c9-076c0fe22547")
	)
	(fp_line
		(start 0.8 0.4)
		(end -0.8 0.4)
		(stroke
			(width 0.025)
			(type solid)
		)
		(layer "Dwgs.User")
		(uuid "e4f9ccec-94dc-4a7c-ad41-32bbd9bf22f0")
	)
	(fp_line
		(start 0.8 0.4)
		(end 0.55 0.4)
		(stroke
			(width 0.025)
			(type solid)
		)
		(layer "Dwgs.User")
		(uuid "cdc95dfe-31f8-4d5d-b0de-9bbe3e17a975")
	)
	(fp_line
		(start -1.29 -0.664)
		(end 1.29 -0.664)
		(stroke
			(width 0.05)
			(type solid)
		)
		(layer "F.CrtYd")
		(uuid "72712189-1470-41f4-99c3-889f185bdf90")
	)
	(fp_line
		(start -1.29 0.664)
		(end -1.29 -0.664)
		(stroke
			(width 0.05)
			(type solid)
		)
		(layer "F.CrtYd")
		(uuid "e7c2edd6-7725-4afd-ba21-f0276659c788")
	)
	(fp_line
		(start 1.29 -0.664)
		(end 1.29 0.664)
		(stroke
			(width 0.05)
			(type solid)
		)
		(layer "F.CrtYd")
		(uuid "2eebe9fd-e09b-477a-a803-f7cc930a0e9f")
	)
	(fp_line
		(start 1.29 0.664)
		(end -1.29 0.664)
		(stroke
			(width 0.05)
			(type solid)
		)
		(layer "F.CrtYd")
		(uuid "ab750395-8b0c-4a7a-9cc5-dcb48d4dc396")
	)
	(fp_line
		(start -0.85 -0.45)
		(end 0.85 -0.45)
		(stroke
			(width 0.12)
			(type solid)
		)
		(layer "F.Fab")
		(uuid "84f16a17-2063-41de-912b-6a6d295f7db0")
	)
	(fp_line
		(start -0.85 0.45)
		(end -0.85 -0.45)
		(stroke
			(width 0.12)
			(type solid)
		)
		(layer "F.Fab")
		(uuid "8b190f7f-4300-49ec-bd18-08d4062b12b9")
	)
	(fp_line
		(start 0 -0.345)
		(end 0 0.345)
		(stroke
			(width 0.05)
			(type solid)
		)
		(layer "F.Fab")
		(uuid "b65be29d-c4fa-4537-aa26-9507330413b8")
	)
	(fp_line
		(start 0.345 0)
		(end -0.345 0)
		(stroke
			(width 0.05)
			(type solid)
		)
		(layer "F.Fab")
		(uuid "1960efbc-526a-4a4d-838d-fd8432ccc3e8")
	)
	(fp_line
		(start 0.85 -0.45)
		(end 0.85 0.45)
		(stroke
			(width 0.12)
			(type solid)
		)
		(layer "F.Fab")
		(uuid "6df46889-c74a-4502-8af6-b9dae17564ae")
	)
	(fp_line
		(start 0.85 0.45)
		(end -0.85 0.45)
		(stroke
			(width 0.12)
			(type solid)
		)
		(layer "F.Fab")
		(uuid "3f4672b6-09c8-483a-9eae-8ff0828ad96e")
	)
	(fp_circle
		(center 0 0)
		(end 0.25 0)
		(stroke
			(width 0.05)
			(type solid)
		)
		(fill none)
		(layer "F.Fab")
		(uuid "a0660065-5037-462b-ba37-2ecc6e83651b")
	)
	(fp_text user "${REFERENCE}"
		(at 0 0 0)
		(layer "F.Fab")
		(uuid "fdf27fdf-eeab-451d-963e-66ce29ae83d0")
		(effects
			(font
				(size 0.5 0.5)
				(thickness 0.06)
			)
		)
	)
	(pad "1" smd roundrect
		(at -0.7 0)
		(size 0.7 0.7)
		(layers "F.Cu" "F.Paste" "F.Mask")
		(roundrect_rratio 0.25)
		(uuid "c224c73b-e1d1-4b99-ad94-948cb666f2e4")
	)
	(pad "2" smd roundrect
		(at 0.7 0)
		(size 0.7 0.7)
		(layers "F.Cu" "F.Paste" "F.Mask")
		(roundrect_rratio 0.25)
		(uuid "33525dc3-0ef2-4961-a5d0-245d6a20fbde")
	)
	(model "D:/OneDrive/work/destinationSpace/development/hardware/.sharedResources/kicad/Destination_Space_Master/.models/CGA0603.STEP"
		(offset
			(xyz 0 -0.47 0.25)
		)
		(scale
			(xyz 1 1 1)
		)
		(rotate
			(xyz 0 0 0)
		)
	)
)
