(footprint "MDT420E01001"
	(version 20240108)
	(generator "pcbnew")
	(generator_version "8.0")
	(layer "F.Cu")
	(property "Reference" "REF**"
		(at 0 0 0)
		(layer "F.SilkS")
		(hide yes)
		(uuid "60b12d0b-3bd4-4ee3-b75d-3ada96d8628f")
		(effects
			(font
				(size 1 1)
				(thickness 0.15)
			)
		)
	)
	(property "Value" "AMPHENOL_MDT420E01001"
		(at 0 0 0)
		(layer "F.Fab")
		(hide yes)
		(uuid "522639f0-3842-430f-bada-73cc64fb49b2")
		(effects
			(font
				(size 1 1)
				(thickness 0.15)
			)
		)
	)
	(property "Footprint" ""
		(at 0 0 0)
		(layer "F.Fab")
		(hide yes)
		(uuid "3c65ceee-89f6-4bc5-94a7-7fbf43147cdf")
		(effects
			(font
				(size 1.27 1.27)
				(thickness 0.15)
			)
		)
	)
	(property "Datasheet" ""
		(at 0 0 0)
		(layer "F.Fab")
		(hide yes)
		(uuid "4285a372-b732-485d-a1d8-acbd6e929d2e")
		(effects
			(font
				(size 1.27 1.27)
				(thickness 0.15)
			)
		)
	)
	(property "Description" ""
		(at 0 0 0)
		(layer "F.Fab")
		(hide yes)
		(uuid "33e4ef03-2a8d-460b-95fa-c1bc29b37453")
		(effects
			(font
				(size 1.27 1.27)
				(thickness 0.15)
			)
		)
	)
	(attr smd)
	(fp_line
		(start -11 2.35)
		(end -11 -2.805)
		(stroke
			(width 0.127)
			(type solid)
		)
		(layer "F.SilkS")
		(uuid "568175d3-783e-4cb6-90c6-0f4b5c8e2a7a")
	)
	(fp_line
		(start -9.47 2.35)
		(end -11 2.35)
		(stroke
			(width 0.127)
			(type solid)
		)
		(layer "F.SilkS")
		(uuid "a9613ac5-9b05-40db-8aa8-767e0c1ba47a")
	)
	(fp_line
		(start -3.53 2.35)
		(end -1.97 2.35)
		(stroke
			(width 0.127)
			(type solid)
		)
		(layer "F.SilkS")
		(uuid "9c2c8c30-5357-41ca-ab3e-b5e8960afbb4")
	)
	(fp_line
		(start -3.28 -5.7)
		(end -1.72 -5.7)
		(stroke
			(width 0.127)
			(type solid)
		)
		(layer "F.SilkS")
		(uuid "1a8d1020-b8d7-4580-9d0c-d2fef47c8538")
	)
	(fp_line
		(start 11 -2.805)
		(end 11 -1.145)
		(stroke
			(width 0.127)
			(type solid)
		)
		(layer "F.SilkS")
		(uuid "d8972330-88fc-4836-b884-ee72193ef3b9")
	)
	(fp_line
		(start 11 2.35)
		(end 9.47 2.35)
		(stroke
			(width 0.127)
			(type solid)
		)
		(layer "F.SilkS")
		(uuid "c2b876e4-5cea-4c02-aed5-6729eec3cb24")
	)
	(fp_line
		(start 11 2.35)
		(end 11 1.145)
		(stroke
			(width 0.127)
			(type solid)
		)
		(layer "F.SilkS")
		(uuid "6c9024e6-2b27-4fe9-8887-ae84f95c0d7a")
	)
	(fp_circle
		(center -9.25 -6.75)
		(end -9.15 -6.75)
		(stroke
			(width 0.2)
			(type solid)
		)
		(fill none)
		(layer "F.SilkS")
		(uuid "dfae2de8-7bf7-4441-83bf-019ade941094")
	)
	(fp_line
		(start -11.25 -6.3)
		(end -11.25 3.3)
		(stroke
			(width 0.05)
			(type solid)
		)
		(layer "F.CrtYd")
		(uuid "607f8b2b-8c58-4540-96c5-0761fb0f7395")
	)
	(fp_line
		(start -11.25 3.3)
		(end 11.25 3.3)
		(stroke
			(width 0.05)
			(type solid)
		)
		(layer "F.CrtYd")
		(uuid "1992e6c7-baab-44f7-a26e-8b07b2e7b36f")
	)
	(fp_line
		(start 11.25 -6.3)
		(end -11.25 -6.3)
		(stroke
			(width 0.05)
			(type solid)
		)
		(layer "F.CrtYd")
		(uuid "43296019-adfb-4814-994d-b283e84c53bb")
	)
	(fp_line
		(start 11.25 3.3)
		(end 11.25 -6.3)
		(stroke
			(width 0.05)
			(type solid)
		)
		(layer "F.CrtYd")
		(uuid "052a8b92-d852-46c1-b439-095a84c3590a")
	)
	(fp_line
		(start -11 -5.7)
		(end 11 -5.7)
		(stroke
			(width 0.127)
			(type solid)
		)
		(layer "F.Fab")
		(uuid "809fad9c-9b8e-49d3-b5f6-629211f2e348")
	)
	(fp_line
		(start -11 2.35)
		(end -11 -5.7)
		(stroke
			(width 0.127)
			(type solid)
		)
		(layer "F.Fab")
		(uuid "29f45571-31a0-42ea-ab0c-91b5d9d7453d")
	)
	(fp_line
		(start 11 -5.7)
		(end 11 2.35)
		(stroke
			(width 0.127)
			(type solid)
		)
		(layer "F.Fab")
		(uuid "81356b02-8973-4cc9-9a33-0213759f6514")
	)
	(fp_line
		(start 11 2.35)
		(end -11 2.35)
		(stroke
			(width 0.127)
			(type solid)
		)
		(layer "F.Fab")
		(uuid "190cd25d-8473-4cda-8803-c8b4c9d7342a")
	)
	(fp_circle
		(center -9.25 -6.75)
		(end -9.15 -6.75)
		(stroke
			(width 0.2)
			(type solid)
		)
		(fill none)
		(layer "F.Fab")
		(uuid "7b8b1866-93c0-498a-8245-a69481552371")
	)
	(pad "" np_thru_hole circle
		(at -10 0)
		(size 1.15 1.15)
		(drill 1.15)
		(layers "*.Cu" "*.Mask")
		(uuid "dd49c3f1-97d8-4fa5-bec1-125d0fee0b33")
	)
	(pad "" np_thru_hole circle
		(at 10 0)
		(size 1.65 1.65)
		(drill 1.65)
		(layers "*.Cu" "*.Mask")
		(uuid "83f511f6-a874-4e4d-83e1-bc6958abef8b")
	)
	(pad "1" smd rect
		(at -9.25 -5.275)
		(size 0.3 1.55)
		(layers "F.Cu" "F.Paste" "F.Mask")
		(solder_mask_margin 0.102)
		(uuid "c1c263cd-273d-437d-81ee-3b487fdb0c8f")
	)
	(pad "2" smd rect
		(at -9 2.275)
		(size 0.3 1.55)
		(layers "F.Cu" "F.Paste" "F.Mask")
		(solder_mask_margin 0.102)
		(uuid "d4322e4f-10a8-465b-8217-f2bc1ec64fd2")
	)
	(pad "3" smd rect
		(at -8.75 -5.275)
		(size 0.3 1.55)
		(layers "F.Cu" "F.Paste" "F.Mask")
		(solder_mask_margin 0.102)
		(uuid "c532b17c-73d1-40ce-b0aa-5dc97c516ac9")
	)
	(pad "4" smd rect
		(at -8.5 2.275)
		(size 0.3 1.55)
		(layers "F.Cu" "F.Paste" "F.Mask")
		(solder_mask_margin 0.102)
		(uuid "d92c62de-149b-4248-aa27-12477fd801b1")
	)
	(pad "5" smd rect
		(at -8.25 -5.275)
		(size 0.3 1.55)
		(layers "F.Cu" "F.Paste" "F.Mask")
		(solder_mask_margin 0.102)
		(uuid "caa9786f-260f-4427-9f6c-dcc87e7b5ca7")
	)
	(pad "6" smd rect
		(at -8 2.275)
		(size 0.3 1.55)
		(layers "F.Cu" "F.Paste" "F.Mask")
		(solder_mask_margin 0.102)
		(uuid "20b7b0da-e52c-4a3b-b01a-94ace85d8bdd")
	)
	(pad "7" smd rect
		(at -7.75 -5.275)
		(size 0.3 1.55)
		(layers "F.Cu" "F.Paste" "F.Mask")
		(solder_mask_margin 0.102)
		(uuid "a76eb17c-c6e5-4b74-a25a-f07a6180c7f7")
	)
	(pad "8" smd rect
		(at -7.5 2.275)
		(size 0.3 1.55)
		(layers "F.Cu" "F.Paste" "F.Mask")
		(solder_mask_margin 0.102)
		(uuid "ca3d5002-a62e-49ae-ac79-f794c88fc7bd")
	)
	(pad "9" smd rect
		(at -7.25 -5.275)
		(size 0.3 1.55)
		(layers "F.Cu" "F.Paste" "F.Mask")
		(solder_mask_margin 0.102)
		(uuid "df172754-cee3-4437-81e5-086b7e3a3f4f")
	)
	(pad "10" smd rect
		(at -7 2.275)
		(size 0.3 1.55)
		(layers "F.Cu" "F.Paste" "F.Mask")
		(solder_mask_margin 0.102)
		(uuid "07db57d7-22a6-4d3d-b19e-946b56047ec5")
	)
	(pad "11" smd rect
		(at -6.75 -5.275)
		(size 0.3 1.55)
		(layers "F.Cu" "F.Paste" "F.Mask")
		(solder_mask_margin 0.102)
		(uuid "3889f02a-52dc-4984-8d05-224bc00a0d2a")
	)
	(pad "12" smd rect
		(at -6.5 2.275)
		(size 0.3 1.55)
		(layers "F.Cu" "F.Paste" "F.Mask")
		(solder_mask_margin 0.102)
		(uuid "20ed18ce-f259-412d-8571-17528356d22a")
	)
	(pad "13" smd rect
		(at -6.25 -5.275)
		(size 0.3 1.55)
		(layers "F.Cu" "F.Paste" "F.Mask")
		(solder_mask_margin 0.102)
		(uuid "6226695c-7b01-4e8a-bf29-c4170a9f0f10")
	)
	(pad "14" smd rect
		(at -6 2.275)
		(size 0.3 1.55)
		(layers "F.Cu" "F.Paste" "F.Mask")
		(solder_mask_margin 0.102)
		(uuid "bbb4ee7b-c9b4-4dbf-8b85-3cc495d4540e")
	)
	(pad "15" smd rect
		(at -5.75 -5.275)
		(size 0.3 1.55)
		(layers "F.Cu" "F.Paste" "F.Mask")
		(solder_mask_margin 0.102)
		(uuid "340309c4-d15e-4f0d-bb41-234dcd68b2e4")
	)
	(pad "16" smd rect
		(at -5.5 2.275)
		(size 0.3 1.55)
		(layers "F.Cu" "F.Paste" "F.Mask")
		(solder_mask_margin 0.102)
		(uuid "c85c6ddf-4594-4c93-ab51-40f48bd05bb9")
	)
	(pad "17" smd rect
		(at -5.25 -5.275)
		(size 0.3 1.55)
		(layers "F.Cu" "F.Paste" "F.Mask")
		(solder_mask_margin 0.102)
		(uuid "c9a39a66-cdd6-4008-8569-663dd32058d6")
	)
	(pad "18" smd rect
		(at -5 2.275)
		(size 0.3 1.55)
		(layers "F.Cu" "F.Paste" "F.Mask")
		(solder_mask_margin 0.102)
		(uuid "947ba715-9c29-4527-b841-5f8ad451d9b7")
	)
	(pad "19" smd rect
		(at -4.75 -5.275)
		(size 0.3 1.55)
		(layers "F.Cu" "F.Paste" "F.Mask")
		(solder_mask_margin 0.102)
		(uuid "eac746c6-99e0-4d1c-a8a0-3af9153b1961")
	)
	(pad "20" smd rect
		(at -4.5 2.275)
		(size 0.3 1.55)
		(layers "F.Cu" "F.Paste" "F.Mask")
		(solder_mask_margin 0.102)
		(uuid "e83639f9-d187-474d-8c26-7683d377ce22")
	)
	(pad "21" smd rect
		(at -4.25 -5.275)
		(size 0.3 1.55)
		(layers "F.Cu" "F.Paste" "F.Mask")
		(solder_mask_margin 0.102)
		(uuid "f2858b09-7cb6-4780-8757-81347fd43604")
	)
	(pad "22" smd rect
		(at -4 2.275)
		(size 0.3 1.55)
		(layers "F.Cu" "F.Paste" "F.Mask")
		(solder_mask_margin 0.102)
		(uuid "c139f9bb-6204-45bc-9c93-53614480d1cc")
	)
	(pad "23" smd rect
		(at -3.75 -5.275)
		(size 0.3 1.55)
		(layers "F.Cu" "F.Paste" "F.Mask")
		(solder_mask_margin 0.102)
		(uuid "2557998a-e110-41fd-afd6-d73315f9f967")
	)
	(pad "32" smd rect
		(at -1.5 2.275)
		(size 0.3 1.55)
		(layers "F.Cu" "F.Paste" "F.Mask")
		(solder_mask_margin 0.102)
		(uuid "99fc7144-2403-4717-ac2f-33945bef3ee1")
	)
	(pad "33" smd rect
		(at -1.25 -5.275)
		(size 0.3 1.55)
		(layers "F.Cu" "F.Paste" "F.Mask")
		(solder_mask_margin 0.102)
		(uuid "6e9320bf-36a9-4e05-a2a2-231d62256b02")
	)
	(pad "34" smd rect
		(at -1 2.275)
		(size 0.3 1.55)
		(layers "F.Cu" "F.Paste" "F.Mask")
		(solder_mask_margin 0.102)
		(uuid "08e98c9a-63dc-4f05-8f87-9d84dccfb94c")
	)
	(pad "35" smd rect
		(at -0.75 -5.275)
		(size 0.3 1.55)
		(layers "F.Cu" "F.Paste" "F.Mask")
		(solder_mask_margin 0.102)
		(uuid "1c082bfb-508f-4da0-bc7c-bcb3e9f13081")
	)
	(pad "36" smd rect
		(at -0.5 2.275)
		(size 0.3 1.55)
		(layers "F.Cu" "F.Paste" "F.Mask")
		(solder_mask_margin 0.102)
		(uuid "4ce3f30f-b672-462e-81e7-0d622821b706")
	)
	(pad "37" smd rect
		(at -0.25 -5.275)
		(size 0.3 1.55)
		(layers "F.Cu" "F.Paste" "F.Mask")
		(solder_mask_margin 0.102)
		(uuid "8d82101e-b92f-4ddb-abb1-93e4e9441bf0")
	)
	(pad "38" smd rect
		(at 0 2.275)
		(size 0.3 1.55)
		(layers "F.Cu" "F.Paste" "F.Mask")
		(solder_mask_margin 0.102)
		(uuid "0fed7d57-3830-49cc-8c88-61c4741b3678")
	)
	(pad "39" smd rect
		(at 0.25 -5.275)
		(size 0.3 1.55)
		(layers "F.Cu" "F.Paste" "F.Mask")
		(solder_mask_margin 0.102)
		(uuid "ea64b15f-a416-4242-acc3-2e145e75c5d7")
	)
	(pad "40" smd rect
		(at 0.5 2.275)
		(size 0.3 1.55)
		(layers "F.Cu" "F.Paste" "F.Mask")
		(solder_mask_margin 0.102)
		(uuid "549907ba-4690-4692-b29e-6964447ff0a8")
	)
	(pad "41" smd rect
		(at 0.75 -5.275)
		(size 0.3 1.55)
		(layers "F.Cu" "F.Paste" "F.Mask")
		(solder_mask_margin 0.102)
		(uuid "2a25cff6-092f-4d1a-ab54-1c0f1af88f61")
	)
	(pad "42" smd rect
		(at 1 2.275)
		(size 0.3 1.55)
		(layers "F.Cu" "F.Paste" "F.Mask")
		(solder_mask_margin 0.102)
		(uuid "4aa9c0f1-081e-4394-8c63-e61d0965881e")
	)
	(pad "43" smd rect
		(at 1.25 -5.275)
		(size 0.3 1.55)
		(layers "F.Cu" "F.Paste" "F.Mask")
		(solder_mask_margin 0.102)
		(uuid "b9f73610-6a5b-490c-85eb-b7d30017f036")
	)
	(pad "44" smd rect
		(at 1.5 2.275)
		(size 0.3 1.55)
		(layers "F.Cu" "F.Paste" "F.Mask")
		(solder_mask_margin 0.102)
		(uuid "fe5d8a87-bc2c-419e-a8f7-e45f0e2dbad4")
	)
	(pad "45" smd rect
		(at 1.75 -5.275)
		(size 0.3 1.55)
		(layers "F.Cu" "F.Paste" "F.Mask")
		(solder_mask_margin 0.102)
		(uuid "5017f71d-e054-4a9b-b8d0-5dcd7b3ff8fe")
	)
	(pad "46" smd rect
		(at 2 2.275)
		(size 0.3 1.55)
		(layers "F.Cu" "F.Paste" "F.Mask")
		(solder_mask_margin 0.102)
		(uuid "7fa75583-220c-4b3c-81c9-56d66a7b73e4")
	)
	(pad "47" smd rect
		(at 2.25 -5.275)
		(size 0.3 1.55)
		(layers "F.Cu" "F.Paste" "F.Mask")
		(solder_mask_margin 0.102)
		(uuid "5e060633-e631-4686-9a4c-a5d6808c66d6")
	)
	(pad "48" smd rect
		(at 2.5 2.275)
		(size 0.3 1.55)
		(layers "F.Cu" "F.Paste" "F.Mask")
		(solder_mask_margin 0.102)
		(uuid "fcf8f477-5d63-40d4-8975-b757257a401a")
	)
	(pad "49" smd rect
		(at 2.75 -5.275)
		(size 0.3 1.55)
		(layers "F.Cu" "F.Paste" "F.Mask")
		(solder_mask_margin 0.102)
		(uuid "59df1c10-febb-4a50-be9b-5a49dcb3fd52")
	)
	(pad "50" smd rect
		(at 3 2.275)
		(size 0.3 1.55)
		(layers "F.Cu" "F.Paste" "F.Mask")
		(solder_mask_margin 0.102)
		(uuid "ba1a7f83-715f-4b6e-a5b6-f40101b64f98")
	)
	(pad "51" smd rect
		(at 3.25 -5.275)
		(size 0.3 1.55)
		(layers "F.Cu" "F.Paste" "F.Mask")
		(solder_mask_margin 0.102)
		(uuid "c9e0e90a-80e1-4947-9a9e-73393b16ed04")
	)
	(pad "52" smd rect
		(at 3.5 2.275)
		(size 0.3 1.55)
		(layers "F.Cu" "F.Paste" "F.Mask")
		(solder_mask_margin 0.102)
		(uuid "0d11a54a-d27b-4534-850e-ea6a90ce9847")
	)
	(pad "53" smd rect
		(at 3.75 -5.275)
		(size 0.3 1.55)
		(layers "F.Cu" "F.Paste" "F.Mask")
		(solder_mask_margin 0.102)
		(uuid "bdf96d41-4df3-4946-8fbb-715b285dfa20")
	)
	(pad "54" smd rect
		(at 4 2.275)
		(size 0.3 1.55)
		(layers "F.Cu" "F.Paste" "F.Mask")
		(solder_mask_margin 0.102)
		(uuid "d003f8bb-e0a5-401f-b166-7b353f210aeb")
	)
	(pad "55" smd rect
		(at 4.25 -5.275)
		(size 0.3 1.55)
		(layers "F.Cu" "F.Paste" "F.Mask")
		(solder_mask_margin 0.102)
		(uuid "3134aedb-3119-4ae3-8f9c-01c2929327d9")
	)
	(pad "56" smd rect
		(at 4.5 2.275)
		(size 0.3 1.55)
		(layers "F.Cu" "F.Paste" "F.Mask")
		(solder_mask_margin 0.102)
		(uuid "4e5fbbfe-d0ec-4379-9a72-ee63947d6c0c")
	)
	(pad "57" smd rect
		(at 4.75 -5.275)
		(size 0.3 1.55)
		(layers "F.Cu" "F.Paste" "F.Mask")
		(solder_mask_margin 0.102)
		(uuid "aafd88ff-d243-4b4d-ad8c-6c17016e3cb4")
	)
	(pad "58" smd rect
		(at 5 2.275)
		(size 0.3 1.55)
		(layers "F.Cu" "F.Paste" "F.Mask")
		(solder_mask_margin 0.102)
		(uuid "6859c79b-03ff-4513-aab4-1fc94b241573")
	)
	(pad "59" smd rect
		(at 5.25 -5.275)
		(size 0.3 1.55)
		(layers "F.Cu" "F.Paste" "F.Mask")
		(solder_mask_margin 0.102)
		(uuid "c43844be-8695-489f-8a87-bbc3834b0a8d")
	)
	(pad "60" smd rect
		(at 5.5 2.275)
		(size 0.3 1.55)
		(layers "F.Cu" "F.Paste" "F.Mask")
		(solder_mask_margin 0.102)
		(uuid "93d54217-10e1-4259-ac24-f41a60008917")
	)
	(pad "61" smd rect
		(at 5.75 -5.275)
		(size 0.3 1.55)
		(layers "F.Cu" "F.Paste" "F.Mask")
		(solder_mask_margin 0.102)
		(uuid "f1ae79e3-0523-499e-8c55-405d7e24c0d5")
	)
	(pad "62" smd rect
		(at 6 2.275)
		(size 0.3 1.55)
		(layers "F.Cu" "F.Paste" "F.Mask")
		(solder_mask_margin 0.102)
		(uuid "07e3051a-71c8-4fda-9e23-f87b94f90557")
	)
	(pad "63" smd rect
		(at 6.25 -5.275)
		(size 0.3 1.55)
		(layers "F.Cu" "F.Paste" "F.Mask")
		(solder_mask_margin 0.102)
		(uuid "51ed675c-4666-435c-ba03-a2acf922cc6b")
	)
	(pad "64" smd rect
		(at 6.5 2.275)
		(size 0.3 1.55)
		(layers "F.Cu" "F.Paste" "F.Mask")
		(solder_mask_margin 0.102)
		(uuid "26f7720a-4139-47c6-87fd-795023aeefb3")
	)
	(pad "65" smd rect
		(at 6.75 -5.275)
		(size 0.3 1.55)
		(layers "F.Cu" "F.Paste" "F.Mask")
		(solder_mask_margin 0.102)
		(uuid "b43c4d69-b023-448e-897c-bd14e1aa085d")
	)
	(pad "66" smd rect
		(at 7 2.275)
		(size 0.3 1.55)
		(layers "F.Cu" "F.Paste" "F.Mask")
		(solder_mask_margin 0.102)
		(uuid "18a94735-0f0c-43d3-aff8-e2846b5cf617")
	)
	(pad "67" smd rect
		(at 7.25 -5.275)
		(size 0.3 1.55)
		(layers "F.Cu" "F.Paste" "F.Mask")
		(solder_mask_margin 0.102)
		(uuid "e0933d55-e017-4f29-a9ec-7e2c5a373308")
	)
	(pad "68" smd rect
		(at 7.5 2.275)
		(size 0.3 1.55)
		(layers "F.Cu" "F.Paste" "F.Mask")
		(solder_mask_margin 0.102)
		(uuid "fb96d753-2503-48d4-8687-8d7fa65e5241")
	)
	(pad "69" smd rect
		(at 7.75 -5.275)
		(size 0.3 1.55)
		(layers "F.Cu" "F.Paste" "F.Mask")
		(solder_mask_margin 0.102)
		(uuid "e6b01802-b9d5-4df0-bffc-e56d623c921f")
	)
	(pad "70" smd rect
		(at 8 2.275)
		(size 0.3 1.55)
		(layers "F.Cu" "F.Paste" "F.Mask")
		(solder_mask_margin 0.102)
		(uuid "60b3c83a-6d04-4177-8891-d7cbd4f1c692")
	)
	(pad "71" smd rect
		(at 8.25 -5.275)
		(size 0.3 1.55)
		(layers "F.Cu" "F.Paste" "F.Mask")
		(solder_mask_margin 0.102)
		(uuid "df587d5e-b3fd-4a3b-826f-732f8b958e37")
	)
	(pad "72" smd rect
		(at 8.5 2.275)
		(size 0.3 1.55)
		(layers "F.Cu" "F.Paste" "F.Mask")
		(solder_mask_margin 0.102)
		(uuid "4a8428a1-37ac-4602-b41c-8fd7d1bd2f3e")
	)
	(pad "73" smd rect
		(at 8.75 -5.275)
		(size 0.3 1.55)
		(layers "F.Cu" "F.Paste" "F.Mask")
		(solder_mask_margin 0.102)
		(uuid "00ab9104-94a3-4a14-8067-e4a3a355c3e4")
	)
	(pad "74" smd rect
		(at 9 2.275)
		(size 0.3 1.55)
		(layers "F.Cu" "F.Paste" "F.Mask")
		(solder_mask_margin 0.102)
		(uuid "0e105eb7-b976-42f5-8206-64ea2bd3999b")
	)
	(pad "75" smd rect
		(at 9.25 -5.275)
		(size 0.3 1.55)
		(layers "F.Cu" "F.Paste" "F.Mask")
		(solder_mask_margin 0.102)
		(uuid "c1b5e628-9705-4308-8779-2dc8bd3dbb20")
	)
	(pad "S1" smd rect
		(at -10.35 -4.5)
		(size 1.2 2.75)
		(layers "F.Cu" "F.Paste" "F.Mask")
		(solder_mask_margin 0.102)
		(uuid "a1a39435-234a-4c1f-b1de-79f66ada95d7")
	)
	(pad "S2" smd rect
		(at 10.35 -4.5)
		(size 1.2 2.75)
		(layers "F.Cu" "F.Paste" "F.Mask")
		(solder_mask_margin 0.102)
		(uuid "a97ecb28-b555-4209-ac4a-5b30973c4906")
	)
)
